{
  "contractName": "Address",
  "abi": [],
  "metadata": "{\"compiler\":{\"version\":\"0.5.11+commit.c082d0b4\"},\"language\":\"Solidity\",\"output\":{\"abi\":[],\"devdoc\":{\"details\":\"Collection of functions related to the address type\",\"methods\":{}},\"userdoc\":{\"methods\":{}}},\"settings\":{\"compilationTarget\":{\"openzeppelin-solidity/contracts/utils/Address.sol\":\"Address\"},\"evmVersion\":\"petersburg\",\"libraries\":{},\"optimizer\":{\"enabled\":true,\"runs\":200},\"remappings\":[]},\"sources\":{\"openzeppelin-solidity/contracts/utils/Address.sol\":{\"keccak256\":\"0x70df50e240407aa50915ad14f61b1a901fa335b37de20955b99ed647be756af0\",\"urls\":[\"bzz-raw://9404711f3206610c08ea97fa52c7b6b4d2e9d536e96fc4b7210aa7e24f796c36\",\"dweb:/ipfs/QmZDzpVzjoap13SuPEq5pVCrmdjoKVZnTsQPLKXAbynTTW\"]}},\"version\":1}",
  "bytecode": "0x60556023600b82828239805160001a607314601657fe5b30600052607381538281f3fe73000000000000000000000000000000000000000030146080604052600080fdfea265627a7a72315820c420af04c73ebf9713cc4ecd408111e2eb85b2c497920aa9696400bb1aee184364736f6c634300050b0032",
  "deployedBytecode": "0x73000000000000000000000000000000000000000030146080604052600080fdfea265627a7a72315820c420af04c73ebf9713cc4ecd408111e2eb85b2c497920aa9696400bb1aee184364736f6c634300050b0032",
  "sourceMap": "93:2919:35:-;;132:2:-1;166:7;155:9;146:7;137:37;255:7;249:14;246:1;241:23;235:4;232:33;222:2;;269:9;222:2;293:9;290:1;283:20;323:4;314:7;306:22;347:7;338;331:24",
  "deployedSourceMap": "93:2919:35:-;;;;;;;;",
  "source": "pragma solidity ^0.5.5;\n\n/**\n * @dev Collection of functions related to the address type\n */\nlibrary Address {\n    /**\n     * @dev Returns true if `account` is a contract.\n     *\n     * This test is non-exhaustive, and there may be false-negatives: during the\n     * execution of a contract's constructor, its address will be reported as\n     * not containing a contract.\n     *\n     * IMPORTANT: It is unsafe to assume that an address for which this\n     * function returns false is an externally-owned account (EOA) and not a\n     * contract.\n     */\n    function isContract(address account) internal view returns (bool) {\n        // This method relies in extcodesize, which returns 0 for contracts in\n        // construction, since the code is only stored at the end of the\n        // constructor execution.\n\n        // According to EIP-1052, 0x0 is the value returned for not-yet created accounts\n        // and 0xc5d2460186f7233c927e7db2dcc703c0e500b653ca82273b7bfad8045d85a470 is returned\n        // for accounts without code, i.e. `keccak256('')`\n        bytes32 codehash;\n        bytes32 accountHash = 0xc5d2460186f7233c927e7db2dcc703c0e500b653ca82273b7bfad8045d85a470;\n        // solhint-disable-next-line no-inline-assembly\n        assembly { codehash := extcodehash(account) }\n        return (codehash != 0x0 && codehash != accountHash);\n    }\n\n    /**\n     * @dev Converts an `address` into `address payable`. Note that this is\n     * simply a type cast: the actual underlying value is not changed.\n     *\n     * _Available since v2.4.0._\n     */\n    function toPayable(address account) internal pure returns (address payable) {\n        return address(uint160(account));\n    }\n\n    /**\n     * @dev Replacement for Solidity's `transfer`: sends `amount` wei to\n     * `recipient`, forwarding all available gas and reverting on errors.\n     *\n     * https://eips.ethereum.org/EIPS/eip-1884[EIP1884] increases the gas cost\n     * of certain opcodes, possibly making contracts go over the 2300 gas limit\n     * imposed by `transfer`, making them unable to receive funds via\n     * `transfer`. {sendValue} removes this limitation.\n     *\n     * https://diligence.consensys.net/posts/2019/09/stop-using-soliditys-transfer-now/[Learn more].\n     *\n     * IMPORTANT: because control is transferred to `recipient`, care must be\n     * taken to not create reentrancy vulnerabilities. Consider using\n     * {ReentrancyGuard} or the\n     * https://solidity.readthedocs.io/en/v0.5.11/security-considerations.html#use-the-checks-effects-interactions-pattern[checks-effects-interactions pattern].\n     *\n     * _Available since v2.4.0._\n     */\n    function sendValue(address payable recipient, uint256 amount) internal {\n        require(address(this).balance >= amount, \"Address: insufficient balance\");\n\n        // solhint-disable-next-line avoid-call-value\n        (bool success, ) = recipient.call.value(amount)(\"\");\n        require(success, \"Address: unable to send value, recipient may have reverted\");\n    }\n}\n",
  "sourcePath": "openzeppelin-solidity/contracts/utils/Address.sol",
  "ast": {
    "absolutePath": "openzeppelin-solidity/contracts/utils/Address.sol",
    "exportedSymbols": {
      "Address": [
        7191
      ]
    },
    "id": 7192,
    "nodeType": "SourceUnit",
    "nodes": [
      {
        "id": 7118,
        "literals": [
          "solidity",
          "^",
          "0.5",
          ".5"
        ],
        "nodeType": "PragmaDirective",
        "src": "0:23:35"
      },
      {
        "baseContracts": [],
        "contractDependencies": [],
        "contractKind": "library",
        "documentation": "@dev Collection of functions related to the address type",
        "fullyImplemented": true,
        "id": 7191,
        "linearizedBaseContracts": [
          7191
        ],
        "name": "Address",
        "nodeType": "ContractDefinition",
        "nodes": [
          {
            "body": {
              "id": 7142,
              "nodeType": "Block",
              "src": "623:731:35",
              "statements": [
                {
                  "assignments": [
                    7126
                  ],
                  "declarations": [
                    {
                      "constant": false,
                      "id": 7126,
                      "name": "codehash",
                      "nodeType": "VariableDeclaration",
                      "scope": 7142,
                      "src": "1062:16:35",
                      "stateVariable": false,
                      "storageLocation": "default",
                      "typeDescriptions": {
                        "typeIdentifier": "t_bytes32",
                        "typeString": "bytes32"
                      },
                      "typeName": {
                        "id": 7125,
                        "name": "bytes32",
                        "nodeType": "ElementaryTypeName",
                        "src": "1062:7:35",
                        "typeDescriptions": {
                          "typeIdentifier": "t_bytes32",
                          "typeString": "bytes32"
                        }
                      },
                      "value": null,
                      "visibility": "internal"
                    }
                  ],
                  "id": 7127,
                  "initialValue": null,
                  "nodeType": "VariableDeclarationStatement",
                  "src": "1062:16:35"
                },
                {
                  "assignments": [
                    7129
                  ],
                  "declarations": [
                    {
                      "constant": false,
                      "id": 7129,
                      "name": "accountHash",
                      "nodeType": "VariableDeclaration",
                      "scope": 7142,
                      "src": "1088:19:35",
                      "stateVariable": false,
                      "storageLocation": "default",
                      "typeDescriptions": {
                        "typeIdentifier": "t_bytes32",
                        "typeString": "bytes32"
                      },
                      "typeName": {
                        "id": 7128,
                        "name": "bytes32",
                        "nodeType": "ElementaryTypeName",
                        "src": "1088:7:35",
                        "typeDescriptions": {
                          "typeIdentifier": "t_bytes32",
                          "typeString": "bytes32"
                        }
                      },
                      "value": null,
                      "visibility": "internal"
                    }
                  ],
                  "id": 7131,
                  "initialValue": {
                    "argumentTypes": null,
                    "hexValue": "307863356432343630313836663732333363393237653764623264636337303363306535303062363533636138323237336237626661643830343564383561343730",
                    "id": 7130,
                    "isConstant": false,
                    "isLValue": false,
                    "isPure": true,
                    "kind": "number",
                    "lValueRequested": false,
                    "nodeType": "Literal",
                    "src": "1110:66:35",
                    "subdenomination": null,
                    "typeDescriptions": {
                      "typeIdentifier": "t_rational_89477152217924674838424037953991966239322087453347756267410168184682657981552_by_1",
                      "typeString": "int_const 8947...(69 digits omitted)...1552"
                    },
                    "value": "0xc5d2460186f7233c927e7db2dcc703c0e500b653ca82273b7bfad8045d85a470"
                  },
                  "nodeType": "VariableDeclarationStatement",
                  "src": "1088:88:35"
                },
                {
                  "externalReferences": [
                    {
                      "codehash": {
                        "declaration": 7126,
                        "isOffset": false,
                        "isSlot": false,
                        "src": "1253:8:35",
                        "valueSize": 1
                      }
                    },
                    {
                      "account": {
                        "declaration": 7120,
                        "isOffset": false,
                        "isSlot": false,
                        "src": "1277:7:35",
                        "valueSize": 1
                      }
                    }
                  ],
                  "id": 7132,
                  "nodeType": "InlineAssembly",
                  "operations": "{\n    codehash := extcodehash(account)\n}",
                  "src": "1242:45:35"
                },
                {
                  "expression": {
                    "argumentTypes": null,
                    "components": [
                      {
                        "argumentTypes": null,
                        "commonType": {
                          "typeIdentifier": "t_bool",
                          "typeString": "bool"
                        },
                        "id": 7139,
                        "isConstant": false,
                        "isLValue": false,
                        "isPure": false,
                        "lValueRequested": false,
                        "leftExpression": {
                          "argumentTypes": null,
                          "commonType": {
                            "typeIdentifier": "t_bytes32",
                            "typeString": "bytes32"
                          },
                          "id": 7135,
                          "isConstant": false,
                          "isLValue": false,
                          "isPure": false,
                          "lValueRequested": false,
                          "leftExpression": {
                            "argumentTypes": null,
                            "id": 7133,
                            "name": "codehash",
                            "nodeType": "Identifier",
                            "overloadedDeclarations": [],
                            "referencedDeclaration": 7126,
                            "src": "1304:8:35",
                            "typeDescriptions": {
                              "typeIdentifier": "t_bytes32",
                              "typeString": "bytes32"
                            }
                          },
                          "nodeType": "BinaryOperation",
                          "operator": "!=",
                          "rightExpression": {
                            "argumentTypes": null,
                            "hexValue": "307830",
                            "id": 7134,
                            "isConstant": false,
                            "isLValue": false,
                            "isPure": true,
                            "kind": "number",
                            "lValueRequested": false,
                            "nodeType": "Literal",
                            "src": "1316:3:35",
                            "subdenomination": null,
                            "typeDescriptions": {
                              "typeIdentifier": "t_rational_0_by_1",
                              "typeString": "int_const 0"
                            },
                            "value": "0x0"
                          },
                          "src": "1304:15:35",
                          "typeDescriptions": {
                            "typeIdentifier": "t_bool",
                            "typeString": "bool"
                          }
                        },
                        "nodeType": "BinaryOperation",
                        "operator": "&&",
                        "rightExpression": {
                          "argumentTypes": null,
                          "commonType": {
                            "typeIdentifier": "t_bytes32",
                            "typeString": "bytes32"
                          },
                          "id": 7138,
                          "isConstant": false,
                          "isLValue": false,
                          "isPure": false,
                          "lValueRequested": false,
                          "leftExpression": {
                            "argumentTypes": null,
                            "id": 7136,
                            "name": "codehash",
                            "nodeType": "Identifier",
                            "overloadedDeclarations": [],
                            "referencedDeclaration": 7126,
                            "src": "1323:8:35",
                            "typeDescriptions": {
                              "typeIdentifier": "t_bytes32",
                              "typeString": "bytes32"
                            }
                          },
                          "nodeType": "BinaryOperation",
                          "operator": "!=",
                          "rightExpression": {
                            "argumentTypes": null,
                            "id": 7137,
                            "name": "accountHash",
                            "nodeType": "Identifier",
                            "overloadedDeclarations": [],
                            "referencedDeclaration": 7129,
                            "src": "1335:11:35",
                            "typeDescriptions": {
                              "typeIdentifier": "t_bytes32",
                              "typeString": "bytes32"
                            }
                          },
                          "src": "1323:23:35",
                          "typeDescriptions": {
                            "typeIdentifier": "t_bool",
                            "typeString": "bool"
                          }
                        },
                        "src": "1304:42:35",
                        "typeDescriptions": {
                          "typeIdentifier": "t_bool",
                          "typeString": "bool"
                        }
                      }
                    ],
                    "id": 7140,
                    "isConstant": false,
                    "isInlineArray": false,
                    "isLValue": false,
                    "isPure": false,
                    "lValueRequested": false,
                    "nodeType": "TupleExpression",
                    "src": "1303:44:35",
                    "typeDescriptions": {
                      "typeIdentifier": "t_bool",
                      "typeString": "bool"
                    }
                  },
                  "functionReturnParameters": 7124,
                  "id": 7141,
                  "nodeType": "Return",
                  "src": "1296:51:35"
                }
              ]
            },
            "documentation": "@dev Returns true if `account` is a contract.\n     * This test is non-exhaustive, and there may be false-negatives: during the\nexecution of a contract's constructor, its address will be reported as\nnot containing a contract.\n     * IMPORTANT: It is unsafe to assume that an address for which this\nfunction returns false is an externally-owned account (EOA) and not a\ncontract.",
            "id": 7143,
            "implemented": true,
            "kind": "function",
            "modifiers": [],
            "name": "isContract",
            "nodeType": "FunctionDefinition",
            "parameters": {
              "id": 7121,
              "nodeType": "ParameterList",
              "parameters": [
                {
                  "constant": false,
                  "id": 7120,
                  "name": "account",
                  "nodeType": "VariableDeclaration",
                  "scope": 7143,
                  "src": "577:15:35",
                  "stateVariable": false,
                  "storageLocation": "default",
                  "typeDescriptions": {
                    "typeIdentifier": "t_address",
                    "typeString": "address"
                  },
                  "typeName": {
                    "id": 7119,
                    "name": "address",
                    "nodeType": "ElementaryTypeName",
                    "src": "577:7:35",
                    "stateMutability": "nonpayable",
                    "typeDescriptions": {
                      "typeIdentifier": "t_address",
                      "typeString": "address"
                    }
                  },
                  "value": null,
                  "visibility": "internal"
                }
              ],
              "src": "576:17:35"
            },
            "returnParameters": {
              "id": 7124,
              "nodeType": "ParameterList",
              "parameters": [
                {
                  "constant": false,
                  "id": 7123,
                  "name": "",
                  "nodeType": "VariableDeclaration",
                  "scope": 7143,
                  "src": "617:4:35",
                  "stateVariable": false,
                  "storageLocation": "default",
                  "typeDescriptions": {
                    "typeIdentifier": "t_bool",
                    "typeString": "bool"
                  },
                  "typeName": {
                    "id": 7122,
                    "name": "bool",
                    "nodeType": "ElementaryTypeName",
                    "src": "617:4:35",
                    "typeDescriptions": {
                      "typeIdentifier": "t_bool",
                      "typeString": "bool"
                    }
                  },
                  "value": null,
                  "visibility": "internal"
                }
              ],
              "src": "616:6:35"
            },
            "scope": 7191,
            "src": "557:797:35",
            "stateMutability": "view",
            "superFunction": null,
            "visibility": "internal"
          },
          {
            "body": {
              "id": 7156,
              "nodeType": "Block",
              "src": "1639:49:35",
              "statements": [
                {
                  "expression": {
                    "argumentTypes": null,
                    "arguments": [
                      {
                        "argumentTypes": null,
                        "arguments": [
                          {
                            "argumentTypes": null,
                            "id": 7152,
                            "name": "account",
                            "nodeType": "Identifier",
                            "overloadedDeclarations": [],
                            "referencedDeclaration": 7145,
                            "src": "1672:7:35",
                            "typeDescriptions": {
                              "typeIdentifier": "t_address",
                              "typeString": "address"
                            }
                          }
                        ],
                        "expression": {
                          "argumentTypes": [
                            {
                              "typeIdentifier": "t_address",
                              "typeString": "address"
                            }
                          ],
                          "id": 7151,
                          "isConstant": false,
                          "isLValue": false,
                          "isPure": true,
                          "lValueRequested": false,
                          "nodeType": "ElementaryTypeNameExpression",
                          "src": "1664:7:35",
                          "typeDescriptions": {
                            "typeIdentifier": "t_type$_t_uint160_$",
                            "typeString": "type(uint160)"
                          },
                          "typeName": "uint160"
                        },
                        "id": 7153,
                        "isConstant": false,
                        "isLValue": false,
                        "isPure": false,
                        "kind": "typeConversion",
                        "lValueRequested": false,
                        "names": [],
                        "nodeType": "FunctionCall",
                        "src": "1664:16:35",
                        "typeDescriptions": {
                          "typeIdentifier": "t_uint160",
                          "typeString": "uint160"
                        }
                      }
                    ],
                    "expression": {
                      "argumentTypes": [
                        {
                          "typeIdentifier": "t_uint160",
                          "typeString": "uint160"
                        }
                      ],
                      "id": 7150,
                      "isConstant": false,
                      "isLValue": false,
                      "isPure": true,
                      "lValueRequested": false,
                      "nodeType": "ElementaryTypeNameExpression",
                      "src": "1656:7:35",
                      "typeDescriptions": {
                        "typeIdentifier": "t_type$_t_address_$",
                        "typeString": "type(address)"
                      },
                      "typeName": "address"
                    },
                    "id": 7154,
                    "isConstant": false,
                    "isLValue": false,
                    "isPure": false,
                    "kind": "typeConversion",
                    "lValueRequested": false,
                    "names": [],
                    "nodeType": "FunctionCall",
                    "src": "1656:25:35",
                    "typeDescriptions": {
                      "typeIdentifier": "t_address_payable",
                      "typeString": "address payable"
                    }
                  },
                  "functionReturnParameters": 7149,
                  "id": 7155,
                  "nodeType": "Return",
                  "src": "1649:32:35"
                }
              ]
            },
            "documentation": "@dev Converts an `address` into `address payable`. Note that this is\nsimply a type cast: the actual underlying value is not changed.\n     * _Available since v2.4.0._",
            "id": 7157,
            "implemented": true,
            "kind": "function",
            "modifiers": [],
            "name": "toPayable",
            "nodeType": "FunctionDefinition",
            "parameters": {
              "id": 7146,
              "nodeType": "ParameterList",
              "parameters": [
                {
                  "constant": false,
                  "id": 7145,
                  "name": "account",
                  "nodeType": "VariableDeclaration",
                  "scope": 7157,
                  "src": "1582:15:35",
                  "stateVariable": false,
                  "storageLocation": "default",
                  "typeDescriptions": {
                    "typeIdentifier": "t_address",
                    "typeString": "address"
                  },
                  "typeName": {
                    "id": 7144,
                    "name": "address",
                    "nodeType": "ElementaryTypeName",
                    "src": "1582:7:35",
                    "stateMutability": "nonpayable",
                    "typeDescriptions": {
                      "typeIdentifier": "t_address",
                      "typeString": "address"
                    }
                  },
                  "value": null,
                  "visibility": "internal"
                }
              ],
              "src": "1581:17:35"
            },
            "returnParameters": {
              "id": 7149,
              "nodeType": "ParameterList",
              "parameters": [
                {
                  "constant": false,
                  "id": 7148,
                  "name": "",
                  "nodeType": "VariableDeclaration",
                  "scope": 7157,
                  "src": "1622:15:35",
                  "stateVariable": false,
                  "storageLocation": "default",
                  "typeDescriptions": {
                    "typeIdentifier": "t_address_payable",
                    "typeString": "address payable"
                  },
                  "typeName": {
                    "id": 7147,
                    "name": "address",
                    "nodeType": "ElementaryTypeName",
                    "src": "1622:15:35",
                    "stateMutability": "payable",
                    "typeDescriptions": {
                      "typeIdentifier": "t_address_payable",
                      "typeString": "address payable"
                    }
                  },
                  "value": null,
                  "visibility": "internal"
                }
              ],
              "src": "1621:17:35"
            },
            "scope": 7191,
            "src": "1563:125:35",
            "stateMutability": "pure",
            "superFunction": null,
            "visibility": "internal"
          },
          {
            "body": {
              "id": 7189,
              "nodeType": "Block",
              "src": "2716:294:35",
              "statements": [
                {
                  "expression": {
                    "argumentTypes": null,
                    "arguments": [
                      {
                        "argumentTypes": null,
                        "commonType": {
                          "typeIdentifier": "t_uint256",
                          "typeString": "uint256"
                        },
                        "id": 7170,
                        "isConstant": false,
                        "isLValue": false,
                        "isPure": false,
                        "lValueRequested": false,
                        "leftExpression": {
                          "argumentTypes": null,
                          "expression": {
                            "argumentTypes": null,
                            "arguments": [
                              {
                                "argumentTypes": null,
                                "id": 7166,
                                "name": "this",
                                "nodeType": "Identifier",
                                "overloadedDeclarations": [],
                                "referencedDeclaration": 7296,
                                "src": "2742:4:35",
                                "typeDescriptions": {
                                  "typeIdentifier": "t_contract$_Address_$7191",
                                  "typeString": "library Address"
                                }
                              }
                            ],
                            "expression": {
                              "argumentTypes": [
                                {
                                  "typeIdentifier": "t_contract$_Address_$7191",
                                  "typeString": "library Address"
                                }
                              ],
                              "id": 7165,
                              "isConstant": false,
                              "isLValue": false,
                              "isPure": true,
                              "lValueRequested": false,
                              "nodeType": "ElementaryTypeNameExpression",
                              "src": "2734:7:35",
                              "typeDescriptions": {
                                "typeIdentifier": "t_type$_t_address_$",
                                "typeString": "type(address)"
                              },
                              "typeName": "address"
                            },
                            "id": 7167,
                            "isConstant": false,
                            "isLValue": false,
                            "isPure": false,
                            "kind": "typeConversion",
                            "lValueRequested": false,
                            "names": [],
                            "nodeType": "FunctionCall",
                            "src": "2734:13:35",
                            "typeDescriptions": {
                              "typeIdentifier": "t_address",
                              "typeString": "address"
                            }
                          },
                          "id": 7168,
                          "isConstant": false,
                          "isLValue": false,
                          "isPure": false,
                          "lValueRequested": false,
                          "memberName": "balance",
                          "nodeType": "MemberAccess",
                          "referencedDeclaration": null,
                          "src": "2734:21:35",
                          "typeDescriptions": {
                            "typeIdentifier": "t_uint256",
                            "typeString": "uint256"
                          }
                        },
                        "nodeType": "BinaryOperation",
                        "operator": ">=",
                        "rightExpression": {
                          "argumentTypes": null,
                          "id": 7169,
                          "name": "amount",
                          "nodeType": "Identifier",
                          "overloadedDeclarations": [],
                          "referencedDeclaration": 7161,
                          "src": "2759:6:35",
                          "typeDescriptions": {
                            "typeIdentifier": "t_uint256",
                            "typeString": "uint256"
                          }
                        },
                        "src": "2734:31:35",
                        "typeDescriptions": {
                          "typeIdentifier": "t_bool",
                          "typeString": "bool"
                        }
                      },
                      {
                        "argumentTypes": null,
                        "hexValue": "416464726573733a20696e73756666696369656e742062616c616e6365",
                        "id": 7171,
                        "isConstant": false,
                        "isLValue": false,
                        "isPure": true,
                        "kind": "string",
                        "lValueRequested": false,
                        "nodeType": "Literal",
                        "src": "2767:31:35",
                        "subdenomination": null,
                        "typeDescriptions": {
                          "typeIdentifier": "t_stringliteral_5597a22abd0ef5332f8053862eb236db7590f17e2b93a53f63a103becfb561f9",
                          "typeString": "literal_string \"Address: insufficient balance\""
                        },
                        "value": "Address: insufficient balance"
                      }
                    ],
                    "expression": {
                      "argumentTypes": [
                        {
                          "typeIdentifier": "t_bool",
                          "typeString": "bool"
                        },
                        {
                          "typeIdentifier": "t_stringliteral_5597a22abd0ef5332f8053862eb236db7590f17e2b93a53f63a103becfb561f9",
                          "typeString": "literal_string \"Address: insufficient balance\""
                        }
                      ],
                      "id": 7164,
                      "name": "require",
                      "nodeType": "Identifier",
                      "overloadedDeclarations": [
                        7241,
                        7242
                      ],
                      "referencedDeclaration": 7242,
                      "src": "2726:7:35",
                      "typeDescriptions": {
                        "typeIdentifier": "t_function_require_pure$_t_bool_$_t_string_memory_ptr_$returns$__$",
                        "typeString": "function (bool,string memory) pure"
                      }
                    },
                    "id": 7172,
                    "isConstant": false,
                    "isLValue": false,
                    "isPure": false,
                    "kind": "functionCall",
                    "lValueRequested": false,
                    "names": [],
                    "nodeType": "FunctionCall",
                    "src": "2726:73:35",
                    "typeDescriptions": {
                      "typeIdentifier": "t_tuple$__$",
                      "typeString": "tuple()"
                    }
                  },
                  "id": 7173,
                  "nodeType": "ExpressionStatement",
                  "src": "2726:73:35"
                },
                {
                  "assignments": [
                    7175,
                    null
                  ],
                  "declarations": [
                    {
                      "constant": false,
                      "id": 7175,
                      "name": "success",
                      "nodeType": "VariableDeclaration",
                      "scope": 7189,
                      "src": "2865:12:35",
                      "stateVariable": false,
                      "storageLocation": "default",
                      "typeDescriptions": {
                        "typeIdentifier": "t_bool",
                        "typeString": "bool"
                      },
                      "typeName": {
                        "id": 7174,
                        "name": "bool",
                        "nodeType": "ElementaryTypeName",
                        "src": "2865:4:35",
                        "typeDescriptions": {
                          "typeIdentifier": "t_bool",
                          "typeString": "bool"
                        }
                      },
                      "value": null,
                      "visibility": "internal"
                    },
                    null
                  ],
                  "id": 7183,
                  "initialValue": {
                    "argumentTypes": null,
                    "arguments": [
                      {
                        "argumentTypes": null,
                        "hexValue": "",
                        "id": 7181,
                        "isConstant": false,
                        "isLValue": false,
                        "isPure": true,
                        "kind": "string",
                        "lValueRequested": false,
                        "nodeType": "Literal",
                        "src": "2912:2:35",
                        "subdenomination": null,
                        "typeDescriptions": {
                          "typeIdentifier": "t_stringliteral_c5d2460186f7233c927e7db2dcc703c0e500b653ca82273b7bfad8045d85a470",
                          "typeString": "literal_string \"\""
                        },
                        "value": ""
                      }
                    ],
                    "expression": {
                      "argumentTypes": [
                        {
                          "typeIdentifier": "t_stringliteral_c5d2460186f7233c927e7db2dcc703c0e500b653ca82273b7bfad8045d85a470",
                          "typeString": "literal_string \"\""
                        }
                      ],
                      "arguments": [
                        {
                          "argumentTypes": null,
                          "id": 7179,
                          "name": "amount",
                          "nodeType": "Identifier",
                          "overloadedDeclarations": [],
                          "referencedDeclaration": 7161,
                          "src": "2904:6:35",
                          "typeDescriptions": {
                            "typeIdentifier": "t_uint256",
                            "typeString": "uint256"
                          }
                        }
                      ],
                      "expression": {
                        "argumentTypes": [
                          {
                            "typeIdentifier": "t_uint256",
                            "typeString": "uint256"
                          }
                        ],
                        "expression": {
                          "argumentTypes": null,
                          "expression": {
                            "argumentTypes": null,
                            "id": 7176,
                            "name": "recipient",
                            "nodeType": "Identifier",
                            "overloadedDeclarations": [],
                            "referencedDeclaration": 7159,
                            "src": "2883:9:35",
                            "typeDescriptions": {
                              "typeIdentifier": "t_address_payable",
                              "typeString": "address payable"
                            }
                          },
                          "id": 7177,
                          "isConstant": false,
                          "isLValue": false,
                          "isPure": false,
                          "lValueRequested": false,
                          "memberName": "call",
                          "nodeType": "MemberAccess",
                          "referencedDeclaration": null,
                          "src": "2883:14:35",
                          "typeDescriptions": {
                            "typeIdentifier": "t_function_barecall_payable$_t_bytes_memory_ptr_$returns$_t_bool_$_t_bytes_memory_ptr_$",
                            "typeString": "function (bytes memory) payable returns (bool,bytes memory)"
                          }
                        },
                        "id": 7178,
                        "isConstant": false,
                        "isLValue": false,
                        "isPure": false,
                        "lValueRequested": false,
                        "memberName": "value",
                        "nodeType": "MemberAccess",
                        "referencedDeclaration": null,
                        "src": "2883:20:35",
                        "typeDescriptions": {
                          "typeIdentifier": "t_function_setvalue_pure$_t_uint256_$returns$_t_function_barecall_payable$_t_bytes_memory_ptr_$returns$_t_bool_$_t_bytes_memory_ptr_$value_$",
                          "typeString": "function (uint256) pure returns (function (bytes memory) payable returns (bool,bytes memory))"
                        }
                      },
                      "id": 7180,
                      "isConstant": false,
                      "isLValue": false,
                      "isPure": false,
                      "kind": "functionCall",
                      "lValueRequested": false,
                      "names": [],
                      "nodeType": "FunctionCall",
                      "src": "2883:28:35",
                      "typeDescriptions": {
                        "typeIdentifier": "t_function_barecall_payable$_t_bytes_memory_ptr_$returns$_t_bool_$_t_bytes_memory_ptr_$value",
                        "typeString": "function (bytes memory) payable returns (bool,bytes memory)"
                      }
                    },
                    "id": 7182,
                    "isConstant": false,
                    "isLValue": false,
                    "isPure": false,
                    "kind": "functionCall",
                    "lValueRequested": false,
                    "names": [],
                    "nodeType": "FunctionCall",
                    "src": "2883:32:35",
                    "typeDescriptions": {
                      "typeIdentifier": "t_tuple$_t_bool_$_t_bytes_memory_ptr_$",
                      "typeString": "tuple(bool,bytes memory)"
                    }
                  },
                  "nodeType": "VariableDeclarationStatement",
                  "src": "2864:51:35"
                },
                {
                  "expression": {
                    "argumentTypes": null,
                    "arguments": [
                      {
                        "argumentTypes": null,
                        "id": 7185,
                        "name": "success",
                        "nodeType": "Identifier",
                        "overloadedDeclarations": [],
                        "referencedDeclaration": 7175,
                        "src": "2933:7:35",
                        "typeDescriptions": {
                          "typeIdentifier": "t_bool",
                          "typeString": "bool"
                        }
                      },
                      {
                        "argumentTypes": null,
                        "hexValue": "416464726573733a20756e61626c6520746f2073656e642076616c75652c20726563697069656e74206d61792068617665207265766572746564",
                        "id": 7186,
                        "isConstant": false,
                        "isLValue": false,
                        "isPure": true,
                        "kind": "string",
                        "lValueRequested": false,
                        "nodeType": "Literal",
                        "src": "2942:60:35",
                        "subdenomination": null,
                        "typeDescriptions": {
                          "typeIdentifier": "t_stringliteral_51ddaa38748c0a1144620fb5bfe8edab31ea437571ad591a7734bbfd0429aeae",
                          "typeString": "literal_string \"Address: unable to send value, recipient may have reverted\""
                        },
                        "value": "Address: unable to send value, recipient may have reverted"
                      }
                    ],
                    "expression": {
                      "argumentTypes": [
                        {
                          "typeIdentifier": "t_bool",
                          "typeString": "bool"
                        },
                        {
                          "typeIdentifier": "t_stringliteral_51ddaa38748c0a1144620fb5bfe8edab31ea437571ad591a7734bbfd0429aeae",
                          "typeString": "literal_string \"Address: unable to send value, recipient may have reverted\""
                        }
                      ],
                      "id": 7184,
                      "name": "require",
                      "nodeType": "Identifier",
                      "overloadedDeclarations": [
                        7241,
                        7242
                      ],
                      "referencedDeclaration": 7242,
                      "src": "2925:7:35",
                      "typeDescriptions": {
                        "typeIdentifier": "t_function_require_pure$_t_bool_$_t_string_memory_ptr_$returns$__$",
                        "typeString": "function (bool,string memory) pure"
                      }
                    },
                    "id": 7187,
                    "isConstant": false,
                    "isLValue": false,
                    "isPure": false,
                    "kind": "functionCall",
                    "lValueRequested": false,
                    "names": [],
                    "nodeType": "FunctionCall",
                    "src": "2925:78:35",
                    "typeDescriptions": {
                      "typeIdentifier": "t_tuple$__$",
                      "typeString": "tuple()"
                    }
                  },
                  "id": 7188,
                  "nodeType": "ExpressionStatement",
                  "src": "2925:78:35"
                }
              ]
            },
            "documentation": "@dev Replacement for Solidity's `transfer`: sends `amount` wei to\n`recipient`, forwarding all available gas and reverting on errors.\n     * https://eips.ethereum.org/EIPS/eip-1884[EIP1884] increases the gas cost\nof certain opcodes, possibly making contracts go over the 2300 gas limit\nimposed by `transfer`, making them unable to receive funds via\n`transfer`. {sendValue} removes this limitation.\n     * https://diligence.consensys.net/posts/2019/09/stop-using-soliditys-transfer-now/[Learn more].\n     * IMPORTANT: because control is transferred to `recipient`, care must be\ntaken to not create reentrancy vulnerabilities. Consider using\n{ReentrancyGuard} or the\nhttps://solidity.readthedocs.io/en/v0.5.11/security-considerations.html#use-the-checks-effects-interactions-pattern[checks-effects-interactions pattern].\n     * _Available since v2.4.0._",
            "id": 7190,
            "implemented": true,
            "kind": "function",
            "modifiers": [],
            "name": "sendValue",
            "nodeType": "FunctionDefinition",
            "parameters": {
              "id": 7162,
              "nodeType": "ParameterList",
              "parameters": [
                {
                  "constant": false,
                  "id": 7159,
                  "name": "recipient",
                  "nodeType": "VariableDeclaration",
                  "scope": 7190,
                  "src": "2664:25:35",
                  "stateVariable": false,
                  "storageLocation": "default",
                  "typeDescriptions": {
                    "typeIdentifier": "t_address_payable",
                    "typeString": "address payable"
                  },
                  "typeName": {
                    "id": 7158,
                    "name": "address",
                    "nodeType": "ElementaryTypeName",
                    "src": "2664:15:35",
                    "stateMutability": "payable",
                    "typeDescriptions": {
                      "typeIdentifier": "t_address_payable",
                      "typeString": "address payable"
                    }
                  },
                  "value": null,
                  "visibility": "internal"
                },
                {
                  "constant": false,
                  "id": 7161,
                  "name": "amount",
                  "nodeType": "VariableDeclaration",
                  "scope": 7190,
                  "src": "2691:14:35",
                  "stateVariable": false,
                  "storageLocation": "default",
                  "typeDescriptions": {
                    "typeIdentifier": "t_uint256",
                    "typeString": "uint256"
                  },
                  "typeName": {
                    "id": 7160,
                    "name": "uint256",
                    "nodeType": "ElementaryTypeName",
                    "src": "2691:7:35",
                    "typeDescriptions": {
                      "typeIdentifier": "t_uint256",
                      "typeString": "uint256"
                    }
                  },
                  "value": null,
                  "visibility": "internal"
                }
              ],
              "src": "2663:43:35"
            },
            "returnParameters": {
              "id": 7163,
              "nodeType": "ParameterList",
              "parameters": [],
              "src": "2716:0:35"
            },
            "scope": 7191,
            "src": "2645:365:35",
            "stateMutability": "nonpayable",
            "superFunction": null,
            "visibility": "internal"
          }
        ],
        "scope": 7192,
        "src": "93:2919:35"
      }
    ],
    "src": "0:3013:35"
  },
  "legacyAST": {
    "absolutePath": "openzeppelin-solidity/contracts/utils/Address.sol",
    "exportedSymbols": {
      "Address": [
        7191
      ]
    },
    "id": 7192,
    "nodeType": "SourceUnit",
    "nodes": [
      {
        "id": 7118,
        "literals": [
          "solidity",
          "^",
          "0.5",
          ".5"
        ],
        "nodeType": "PragmaDirective",
        "src": "0:23:35"
      },
      {
        "baseContracts": [],
        "contractDependencies": [],
        "contractKind": "library",
        "documentation": "@dev Collection of functions related to the address type",
        "fullyImplemented": true,
        "id": 7191,
        "linearizedBaseContracts": [
          7191
        ],
        "name": "Address",
        "nodeType": "ContractDefinition",
        "nodes": [
          {
            "body": {
              "id": 7142,
              "nodeType": "Block",
              "src": "623:731:35",
              "statements": [
                {
                  "assignments": [
                    7126
                  ],
                  "declarations": [
                    {
                      "constant": false,
                      "id": 7126,
                      "name": "codehash",
                      "nodeType": "VariableDeclaration",
                      "scope": 7142,
                      "src": "1062:16:35",
                      "stateVariable": false,
                      "storageLocation": "default",
                      "typeDescriptions": {
                        "typeIdentifier": "t_bytes32",
                        "typeString": "bytes32"
                      },
                      "typeName": {
                        "id": 7125,
                        "name": "bytes32",
                        "nodeType": "ElementaryTypeName",
                        "src": "1062:7:35",
                        "typeDescriptions": {
                          "typeIdentifier": "t_bytes32",
                          "typeString": "bytes32"
                        }
                      },
                      "value": null,
                      "visibility": "internal"
                    }
                  ],
                  "id": 7127,
                  "initialValue": null,
                  "nodeType": "VariableDeclarationStatement",
                  "src": "1062:16:35"
                },
                {
                  "assignments": [
                    7129
                  ],
                  "declarations": [
                    {
                      "constant": false,
                      "id": 7129,
                      "name": "accountHash",
                      "nodeType": "VariableDeclaration",
                      "scope": 7142,
                      "src": "1088:19:35",
                      "stateVariable": false,
                      "storageLocation": "default",
                      "typeDescriptions": {
                        "typeIdentifier": "t_bytes32",
                        "typeString": "bytes32"
                      },
                      "typeName": {
                        "id": 7128,
                        "name": "bytes32",
                        "nodeType": "ElementaryTypeName",
                        "src": "1088:7:35",
                        "typeDescriptions": {
                          "typeIdentifier": "t_bytes32",
                          "typeString": "bytes32"
                        }
                      },
                      "value": null,
                      "visibility": "internal"
                    }
                  ],
                  "id": 7131,
                  "initialValue": {
                    "argumentTypes": null,
                    "hexValue": "307863356432343630313836663732333363393237653764623264636337303363306535303062363533636138323237336237626661643830343564383561343730",
                    "id": 7130,
                    "isConstant": false,
                    "isLValue": false,
                    "isPure": true,
                    "kind": "number",
                    "lValueRequested": false,
                    "nodeType": "Literal",
                    "src": "1110:66:35",
                    "subdenomination": null,
                    "typeDescriptions": {
                      "typeIdentifier": "t_rational_89477152217924674838424037953991966239322087453347756267410168184682657981552_by_1",
                      "typeString": "int_const 8947...(69 digits omitted)...1552"
                    },
                    "value": "0xc5d2460186f7233c927e7db2dcc703c0e500b653ca82273b7bfad8045d85a470"
                  },
                  "nodeType": "VariableDeclarationStatement",
                  "src": "1088:88:35"
                },
                {
                  "externalReferences": [
                    {
                      "codehash": {
                        "declaration": 7126,
                        "isOffset": false,
                        "isSlot": false,
                        "src": "1253:8:35",
                        "valueSize": 1
                      }
                    },
                    {
                      "account": {
                        "declaration": 7120,
                        "isOffset": false,
                        "isSlot": false,
                        "src": "1277:7:35",
                        "valueSize": 1
                      }
                    }
                  ],
                  "id": 7132,
                  "nodeType": "InlineAssembly",
                  "operations": "{\n    codehash := extcodehash(account)\n}",
                  "src": "1242:45:35"
                },
                {
                  "expression": {
                    "argumentTypes": null,
                    "components": [
                      {
                        "argumentTypes": null,
                        "commonType": {
                          "typeIdentifier": "t_bool",
                          "typeString": "bool"
                        },
                        "id": 7139,
                        "isConstant": false,
                        "isLValue": false,
                        "isPure": false,
                        "lValueRequested": false,
                        "leftExpression": {
                          "argumentTypes": null,
                          "commonType": {
                            "typeIdentifier": "t_bytes32",
                            "typeString": "bytes32"
                          },
                          "id": 7135,
                          "isConstant": false,
                          "isLValue": false,
                          "isPure": false,
                          "lValueRequested": false,
                          "leftExpression": {
                            "argumentTypes": null,
                            "id": 7133,
                            "name": "codehash",
                            "nodeType": "Identifier",
                            "overloadedDeclarations": [],
                            "referencedDeclaration": 7126,
                            "src": "1304:8:35",
                            "typeDescriptions": {
                              "typeIdentifier": "t_bytes32",
                              "typeString": "bytes32"
                            }
                          },
                          "nodeType": "BinaryOperation",
                          "operator": "!=",
                          "rightExpression": {
                            "argumentTypes": null,
                            "hexValue": "307830",
                            "id": 7134,
                            "isConstant": false,
                            "isLValue": false,
                            "isPure": true,
                            "kind": "number",
                            "lValueRequested": false,
                            "nodeType": "Literal",
                            "src": "1316:3:35",
                            "subdenomination": null,
                            "typeDescriptions": {
                              "typeIdentifier": "t_rational_0_by_1",
                              "typeString": "int_const 0"
                            },
                            "value": "0x0"
                          },
                          "src": "1304:15:35",
                          "typeDescriptions": {
                            "typeIdentifier": "t_bool",
                            "typeString": "bool"
                          }
                        },
                        "nodeType": "BinaryOperation",
                        "operator": "&&",
                        "rightExpression": {
                          "argumentTypes": null,
                          "commonType": {
                            "typeIdentifier": "t_bytes32",
                            "typeString": "bytes32"
                          },
                          "id": 7138,
                          "isConstant": false,
                          "isLValue": false,
                          "isPure": false,
                          "lValueRequested": false,
                          "leftExpression": {
                            "argumentTypes": null,
                            "id": 7136,
                            "name": "codehash",
                            "nodeType": "Identifier",
                            "overloadedDeclarations": [],
                            "referencedDeclaration": 7126,
                            "src": "1323:8:35",
                            "typeDescriptions": {
                              "typeIdentifier": "t_bytes32",
                              "typeString": "bytes32"
                            }
                          },
                          "nodeType": "BinaryOperation",
                          "operator": "!=",
                          "rightExpression": {
                            "argumentTypes": null,
                            "id": 7137,
                            "name": "accountHash",
                            "nodeType": "Identifier",
                            "overloadedDeclarations": [],
                            "referencedDeclaration": 7129,
                            "src": "1335:11:35",
                            "typeDescriptions": {
                              "typeIdentifier": "t_bytes32",
                              "typeString": "bytes32"
                            }
                          },
                          "src": "1323:23:35",
                          "typeDescriptions": {
                            "typeIdentifier": "t_bool",
                            "typeString": "bool"
                          }
                        },
                        "src": "1304:42:35",
                        "typeDescriptions": {
                          "typeIdentifier": "t_bool",
                          "typeString": "bool"
                        }
                      }
                    ],
                    "id": 7140,
                    "isConstant": false,
                    "isInlineArray": false,
                    "isLValue": false,
                    "isPure": false,
                    "lValueRequested": false,
                    "nodeType": "TupleExpression",
                    "src": "1303:44:35",
                    "typeDescriptions": {
                      "typeIdentifier": "t_bool",
                      "typeString": "bool"
                    }
                  },
                  "functionReturnParameters": 7124,
                  "id": 7141,
                  "nodeType": "Return",
                  "src": "1296:51:35"
                }
              ]
            },
            "documentation": "@dev Returns true if `account` is a contract.\n     * This test is non-exhaustive, and there may be false-negatives: during the\nexecution of a contract's constructor, its address will be reported as\nnot containing a contract.\n     * IMPORTANT: It is unsafe to assume that an address for which this\nfunction returns false is an externally-owned account (EOA) and not a\ncontract.",
            "id": 7143,
            "implemented": true,
            "kind": "function",
            "modifiers": [],
            "name": "isContract",
            "nodeType": "FunctionDefinition",
            "parameters": {
              "id": 7121,
              "nodeType": "ParameterList",
              "parameters": [
                {
                  "constant": false,
                  "id": 7120,
                  "name": "account",
                  "nodeType": "VariableDeclaration",
                  "scope": 7143,
                  "src": "577:15:35",
                  "stateVariable": false,
                  "storageLocation": "default",
                  "typeDescriptions": {
                    "typeIdentifier": "t_address",
                    "typeString": "address"
                  },
                  "typeName": {
                    "id": 7119,
                    "name": "address",
                    "nodeType": "ElementaryTypeName",
                    "src": "577:7:35",
                    "stateMutability": "nonpayable",
                    "typeDescriptions": {
                      "typeIdentifier": "t_address",
                      "typeString": "address"
                    }
                  },
                  "value": null,
                  "visibility": "internal"
                }
              ],
              "src": "576:17:35"
            },
            "returnParameters": {
              "id": 7124,
              "nodeType": "ParameterList",
              "parameters": [
                {
                  "constant": false,
                  "id": 7123,
                  "name": "",
                  "nodeType": "VariableDeclaration",
                  "scope": 7143,
                  "src": "617:4:35",
                  "stateVariable": false,
                  "storageLocation": "default",
                  "typeDescriptions": {
                    "typeIdentifier": "t_bool",
                    "typeString": "bool"
                  },
                  "typeName": {
                    "id": 7122,
                    "name": "bool",
                    "nodeType": "ElementaryTypeName",
                    "src": "617:4:35",
                    "typeDescriptions": {
                      "typeIdentifier": "t_bool",
                      "typeString": "bool"
                    }
                  },
                  "value": null,
                  "visibility": "internal"
                }
              ],
              "src": "616:6:35"
            },
            "scope": 7191,
            "src": "557:797:35",
            "stateMutability": "view",
            "superFunction": null,
            "visibility": "internal"
          },
          {
            "body": {
              "id": 7156,
              "nodeType": "Block",
              "src": "1639:49:35",
              "statements": [
                {
                  "expression": {
                    "argumentTypes": null,
                    "arguments": [
                      {
                        "argumentTypes": null,
                        "arguments": [
                          {
                            "argumentTypes": null,
                            "id": 7152,
                            "name": "account",
                            "nodeType": "Identifier",
                            "overloadedDeclarations": [],
                            "referencedDeclaration": 7145,
                            "src": "1672:7:35",
                            "typeDescriptions": {
                              "typeIdentifier": "t_address",
                              "typeString": "address"
                            }
                          }
                        ],
                        "expression": {
                          "argumentTypes": [
                            {
                              "typeIdentifier": "t_address",
                              "typeString": "address"
                            }
                          ],
                          "id": 7151,
                          "isConstant": false,
                          "isLValue": false,
                          "isPure": true,
                          "lValueRequested": false,
                          "nodeType": "ElementaryTypeNameExpression",
                          "src": "1664:7:35",
                          "typeDescriptions": {
                            "typeIdentifier": "t_type$_t_uint160_$",
                            "typeString": "type(uint160)"
                          },
                          "typeName": "uint160"
                        },
                        "id": 7153,
                        "isConstant": false,
                        "isLValue": false,
                        "isPure": false,
                        "kind": "typeConversion",
                        "lValueRequested": false,
                        "names": [],
                        "nodeType": "FunctionCall",
                        "src": "1664:16:35",
                        "typeDescriptions": {
                          "typeIdentifier": "t_uint160",
                          "typeString": "uint160"
                        }
                      }
                    ],
                    "expression": {
                      "argumentTypes": [
                        {
                          "typeIdentifier": "t_uint160",
                          "typeString": "uint160"
                        }
                      ],
                      "id": 7150,
                      "isConstant": false,
                      "isLValue": false,
                      "isPure": true,
                      "lValueRequested": false,
                      "nodeType": "ElementaryTypeNameExpression",
                      "src": "1656:7:35",
                      "typeDescriptions": {
                        "typeIdentifier": "t_type$_t_address_$",
                        "typeString": "type(address)"
                      },
                      "typeName": "address"
                    },
                    "id": 7154,
                    "isConstant": false,
                    "isLValue": false,
                    "isPure": false,
                    "kind": "typeConversion",
                    "lValueRequested": false,
                    "names": [],
                    "nodeType": "FunctionCall",
                    "src": "1656:25:35",
                    "typeDescriptions": {
                      "typeIdentifier": "t_address_payable",
                      "typeString": "address payable"
                    }
                  },
                  "functionReturnParameters": 7149,
                  "id": 7155,
                  "nodeType": "Return",
                  "src": "1649:32:35"
                }
              ]
            },
            "documentation": "@dev Converts an `address` into `address payable`. Note that this is\nsimply a type cast: the actual underlying value is not changed.\n     * _Available since v2.4.0._",
            "id": 7157,
            "implemented": true,
            "kind": "function",
            "modifiers": [],
            "name": "toPayable",
            "nodeType": "FunctionDefinition",
            "parameters": {
              "id": 7146,
              "nodeType": "ParameterList",
              "parameters": [
                {
                  "constant": false,
                  "id": 7145,
                  "name": "account",
                  "nodeType": "VariableDeclaration",
                  "scope": 7157,
                  "src": "1582:15:35",
                  "stateVariable": false,
                  "storageLocation": "default",
                  "typeDescriptions": {
                    "typeIdentifier": "t_address",
                    "typeString": "address"
                  },
                  "typeName": {
                    "id": 7144,
                    "name": "address",
                    "nodeType": "ElementaryTypeName",
                    "src": "1582:7:35",
                    "stateMutability": "nonpayable",
                    "typeDescriptions": {
                      "typeIdentifier": "t_address",
                      "typeString": "address"
                    }
                  },
                  "value": null,
                  "visibility": "internal"
                }
              ],
              "src": "1581:17:35"
            },
            "returnParameters": {
              "id": 7149,
              "nodeType": "ParameterList",
              "parameters": [
                {
                  "constant": false,
                  "id": 7148,
                  "name": "",
                  "nodeType": "VariableDeclaration",
                  "scope": 7157,
                  "src": "1622:15:35",
                  "stateVariable": false,
                  "storageLocation": "default",
                  "typeDescriptions": {
                    "typeIdentifier": "t_address_payable",
                    "typeString": "address payable"
                  },
                  "typeName": {
                    "id": 7147,
                    "name": "address",
                    "nodeType": "ElementaryTypeName",
                    "src": "1622:15:35",
                    "stateMutability": "payable",
                    "typeDescriptions": {
                      "typeIdentifier": "t_address_payable",
                      "typeString": "address payable"
                    }
                  },
                  "value": null,
                  "visibility": "internal"
                }
              ],
              "src": "1621:17:35"
            },
            "scope": 7191,
            "src": "1563:125:35",
            "stateMutability": "pure",
            "superFunction": null,
            "visibility": "internal"
          },
          {
            "body": {
              "id": 7189,
              "nodeType": "Block",
              "src": "2716:294:35",
              "statements": [
                {
                  "expression": {
                    "argumentTypes": null,
                    "arguments": [
                      {
                        "argumentTypes": null,
                        "commonType": {
                          "typeIdentifier": "t_uint256",
                          "typeString": "uint256"
                        },
                        "id": 7170,
                        "isConstant": false,
                        "isLValue": false,
                        "isPure": false,
                        "lValueRequested": false,
                        "leftExpression": {
                          "argumentTypes": null,
                          "expression": {
                            "argumentTypes": null,
                            "arguments": [
                              {
                                "argumentTypes": null,
                                "id": 7166,
                                "name": "this",
                                "nodeType": "Identifier",
                                "overloadedDeclarations": [],
                                "referencedDeclaration": 7296,
                                "src": "2742:4:35",
                                "typeDescriptions": {
                                  "typeIdentifier": "t_contract$_Address_$7191",
                                  "typeString": "library Address"
                                }
                              }
                            ],
                            "expression": {
                              "argumentTypes": [
                                {
                                  "typeIdentifier": "t_contract$_Address_$7191",
                                  "typeString": "library Address"
                                }
                              ],
                              "id": 7165,
                              "isConstant": false,
                              "isLValue": false,
                              "isPure": true,
                              "lValueRequested": false,
                              "nodeType": "ElementaryTypeNameExpression",
                              "src": "2734:7:35",
                              "typeDescriptions": {
                                "typeIdentifier": "t_type$_t_address_$",
                                "typeString": "type(address)"
                              },
                              "typeName": "address"
                            },
                            "id": 7167,
                            "isConstant": false,
                            "isLValue": false,
                            "isPure": false,
                            "kind": "typeConversion",
                            "lValueRequested": false,
                            "names": [],
                            "nodeType": "FunctionCall",
                            "src": "2734:13:35",
                            "typeDescriptions": {
                              "typeIdentifier": "t_address",
                              "typeString": "address"
                            }
                          },
                          "id": 7168,
                          "isConstant": false,
                          "isLValue": false,
                          "isPure": false,
                          "lValueRequested": false,
                          "memberName": "balance",
                          "nodeType": "MemberAccess",
                          "referencedDeclaration": null,
                          "src": "2734:21:35",
                          "typeDescriptions": {
                            "typeIdentifier": "t_uint256",
                            "typeString": "uint256"
                          }
                        },
                        "nodeType": "BinaryOperation",
                        "operator": ">=",
                        "rightExpression": {
                          "argumentTypes": null,
                          "id": 7169,
                          "name": "amount",
                          "nodeType": "Identifier",
                          "overloadedDeclarations": [],
                          "referencedDeclaration": 7161,
                          "src": "2759:6:35",
                          "typeDescriptions": {
                            "typeIdentifier": "t_uint256",
                            "typeString": "uint256"
                          }
                        },
                        "src": "2734:31:35",
                        "typeDescriptions": {
                          "typeIdentifier": "t_bool",
                          "typeString": "bool"
                        }
                      },
                      {
                        "argumentTypes": null,
                        "hexValue": "416464726573733a20696e73756666696369656e742062616c616e6365",
                        "id": 7171,
                        "isConstant": false,
                        "isLValue": false,
                        "isPure": true,
                        "kind": "string",
                        "lValueRequested": false,
                        "nodeType": "Literal",
                        "src": "2767:31:35",
                        "subdenomination": null,
                        "typeDescriptions": {
                          "typeIdentifier": "t_stringliteral_5597a22abd0ef5332f8053862eb236db7590f17e2b93a53f63a103becfb561f9",
                          "typeString": "literal_string \"Address: insufficient balance\""
                        },
                        "value": "Address: insufficient balance"
                      }
                    ],
                    "expression": {
                      "argumentTypes": [
                        {
                          "typeIdentifier": "t_bool",
                          "typeString": "bool"
                        },
                        {
                          "typeIdentifier": "t_stringliteral_5597a22abd0ef5332f8053862eb236db7590f17e2b93a53f63a103becfb561f9",
                          "typeString": "literal_string \"Address: insufficient balance\""
                        }
                      ],
                      "id": 7164,
                      "name": "require",
                      "nodeType": "Identifier",
                      "overloadedDeclarations": [
                        7241,
                        7242
                      ],
                      "referencedDeclaration": 7242,
                      "src": "2726:7:35",
                      "typeDescriptions": {
                        "typeIdentifier": "t_function_require_pure$_t_bool_$_t_string_memory_ptr_$returns$__$",
                        "typeString": "function (bool,string memory) pure"
                      }
                    },
                    "id": 7172,
                    "isConstant": false,
                    "isLValue": false,
                    "isPure": false,
                    "kind": "functionCall",
                    "lValueRequested": false,
                    "names": [],
                    "nodeType": "FunctionCall",
                    "src": "2726:73:35",
                    "typeDescriptions": {
                      "typeIdentifier": "t_tuple$__$",
                      "typeString": "tuple()"
                    }
                  },
                  "id": 7173,
                  "nodeType": "ExpressionStatement",
                  "src": "2726:73:35"
                },
                {
                  "assignments": [
                    7175,
                    null
                  ],
                  "declarations": [
                    {
                      "constant": false,
                      "id": 7175,
                      "name": "success",
                      "nodeType": "VariableDeclaration",
                      "scope": 7189,
                      "src": "2865:12:35",
                      "stateVariable": false,
                      "storageLocation": "default",
                      "typeDescriptions": {
                        "typeIdentifier": "t_bool",
                        "typeString": "bool"
                      },
                      "typeName": {
                        "id": 7174,
                        "name": "bool",
                        "nodeType": "ElementaryTypeName",
                        "src": "2865:4:35",
                        "typeDescriptions": {
                          "typeIdentifier": "t_bool",
                          "typeString": "bool"
                        }
                      },
                      "value": null,
                      "visibility": "internal"
                    },
                    null
                  ],
                  "id": 7183,
                  "initialValue": {
                    "argumentTypes": null,
                    "arguments": [
                      {
                        "argumentTypes": null,
                        "hexValue": "",
                        "id": 7181,
                        "isConstant": false,
                        "isLValue": false,
                        "isPure": true,
                        "kind": "string",
                        "lValueRequested": false,
                        "nodeType": "Literal",
                        "src": "2912:2:35",
                        "subdenomination": null,
                        "typeDescriptions": {
                          "typeIdentifier": "t_stringliteral_c5d2460186f7233c927e7db2dcc703c0e500b653ca82273b7bfad8045d85a470",
                          "typeString": "literal_string \"\""
                        },
                        "value": ""
                      }
                    ],
                    "expression": {
                      "argumentTypes": [
                        {
                          "typeIdentifier": "t_stringliteral_c5d2460186f7233c927e7db2dcc703c0e500b653ca82273b7bfad8045d85a470",
                          "typeString": "literal_string \"\""
                        }
                      ],
                      "arguments": [
                        {
                          "argumentTypes": null,
                          "id": 7179,
                          "name": "amount",
                          "nodeType": "Identifier",
                          "overloadedDeclarations": [],
                          "referencedDeclaration": 7161,
                          "src": "2904:6:35",
                          "typeDescriptions": {
                            "typeIdentifier": "t_uint256",
                            "typeString": "uint256"
                          }
                        }
                      ],
                      "expression": {
                        "argumentTypes": [
                          {
                            "typeIdentifier": "t_uint256",
                            "typeString": "uint256"
                          }
                        ],
                        "expression": {
                          "argumentTypes": null,
                          "expression": {
                            "argumentTypes": null,
                            "id": 7176,
                            "name": "recipient",
                            "nodeType": "Identifier",
                            "overloadedDeclarations": [],
                            "referencedDeclaration": 7159,
                            "src": "2883:9:35",
                            "typeDescriptions": {
                              "typeIdentifier": "t_address_payable",
                              "typeString": "address payable"
                            }
                          },
                          "id": 7177,
                          "isConstant": false,
                          "isLValue": false,
                          "isPure": false,
                          "lValueRequested": false,
                          "memberName": "call",
                          "nodeType": "MemberAccess",
                          "referencedDeclaration": null,
                          "src": "2883:14:35",
                          "typeDescriptions": {
                            "typeIdentifier": "t_function_barecall_payable$_t_bytes_memory_ptr_$returns$_t_bool_$_t_bytes_memory_ptr_$",
                            "typeString": "function (bytes memory) payable returns (bool,bytes memory)"
                          }
                        },
                        "id": 7178,
                        "isConstant": false,
                        "isLValue": false,
                        "isPure": false,
                        "lValueRequested": false,
                        "memberName": "value",
                        "nodeType": "MemberAccess",
                        "referencedDeclaration": null,
                        "src": "2883:20:35",
                        "typeDescriptions": {
                          "typeIdentifier": "t_function_setvalue_pure$_t_uint256_$returns$_t_function_barecall_payable$_t_bytes_memory_ptr_$returns$_t_bool_$_t_bytes_memory_ptr_$value_$",
                          "typeString": "function (uint256) pure returns (function (bytes memory) payable returns (bool,bytes memory))"
                        }
                      },
                      "id": 7180,
                      "isConstant": false,
                      "isLValue": false,
                      "isPure": false,
                      "kind": "functionCall",
                      "lValueRequested": false,
                      "names": [],
                      "nodeType": "FunctionCall",
                      "src": "2883:28:35",
                      "typeDescriptions": {
                        "typeIdentifier": "t_function_barecall_payable$_t_bytes_memory_ptr_$returns$_t_bool_$_t_bytes_memory_ptr_$value",
                        "typeString": "function (bytes memory) payable returns (bool,bytes memory)"
                      }
                    },
                    "id": 7182,
                    "isConstant": false,
                    "isLValue": false,
                    "isPure": false,
                    "kind": "functionCall",
                    "lValueRequested": false,
                    "names": [],
                    "nodeType": "FunctionCall",
                    "src": "2883:32:35",
                    "typeDescriptions": {
                      "typeIdentifier": "t_tuple$_t_bool_$_t_bytes_memory_ptr_$",
                      "typeString": "tuple(bool,bytes memory)"
                    }
                  },
                  "nodeType": "VariableDeclarationStatement",
                  "src": "2864:51:35"
                },
                {
                  "expression": {
                    "argumentTypes": null,
                    "arguments": [
                      {
                        "argumentTypes": null,
                        "id": 7185,
                        "name": "success",
                        "nodeType": "Identifier",
                        "overloadedDeclarations": [],
                        "referencedDeclaration": 7175,
                        "src": "2933:7:35",
                        "typeDescriptions": {
                          "typeIdentifier": "t_bool",
                          "typeString": "bool"
                        }
                      },
                      {
                        "argumentTypes": null,
                        "hexValue": "416464726573733a20756e61626c6520746f2073656e642076616c75652c20726563697069656e74206d61792068617665207265766572746564",
                        "id": 7186,
                        "isConstant": false,
                        "isLValue": false,
                        "isPure": true,
                        "kind": "string",
                        "lValueRequested": false,
                        "nodeType": "Literal",
                        "src": "2942:60:35",
                        "subdenomination": null,
                        "typeDescriptions": {
                          "typeIdentifier": "t_stringliteral_51ddaa38748c0a1144620fb5bfe8edab31ea437571ad591a7734bbfd0429aeae",
                          "typeString": "literal_string \"Address: unable to send value, recipient may have reverted\""
                        },
                        "value": "Address: unable to send value, recipient may have reverted"
                      }
                    ],
                    "expression": {
                      "argumentTypes": [
                        {
                          "typeIdentifier": "t_bool",
                          "typeString": "bool"
                        },
                        {
                          "typeIdentifier": "t_stringliteral_51ddaa38748c0a1144620fb5bfe8edab31ea437571ad591a7734bbfd0429aeae",
                          "typeString": "literal_string \"Address: unable to send value, recipient may have reverted\""
                        }
                      ],
                      "id": 7184,
                      "name": "require",
                      "nodeType": "Identifier",
                      "overloadedDeclarations": [
                        7241,
                        7242
                      ],
                      "referencedDeclaration": 7242,
                      "src": "2925:7:35",
                      "typeDescriptions": {
                        "typeIdentifier": "t_function_require_pure$_t_bool_$_t_string_memory_ptr_$returns$__$",
                        "typeString": "function (bool,string memory) pure"
                      }
                    },
                    "id": 7187,
                    "isConstant": false,
                    "isLValue": false,
                    "isPure": false,
                    "kind": "functionCall",
                    "lValueRequested": false,
                    "names": [],
                    "nodeType": "FunctionCall",
                    "src": "2925:78:35",
                    "typeDescriptions": {
                      "typeIdentifier": "t_tuple$__$",
                      "typeString": "tuple()"
                    }
                  },
                  "id": 7188,
                  "nodeType": "ExpressionStatement",
                  "src": "2925:78:35"
                }
              ]
            },
            "documentation": "@dev Replacement for Solidity's `transfer`: sends `amount` wei to\n`recipient`, forwarding all available gas and reverting on errors.\n     * https://eips.ethereum.org/EIPS/eip-1884[EIP1884] increases the gas cost\nof certain opcodes, possibly making contracts go over the 2300 gas limit\nimposed by `transfer`, making them unable to receive funds via\n`transfer`. {sendValue} removes this limitation.\n     * https://diligence.consensys.net/posts/2019/09/stop-using-soliditys-transfer-now/[Learn more].\n     * IMPORTANT: because control is transferred to `recipient`, care must be\ntaken to not create reentrancy vulnerabilities. Consider using\n{ReentrancyGuard} or the\nhttps://solidity.readthedocs.io/en/v0.5.11/security-considerations.html#use-the-checks-effects-interactions-pattern[checks-effects-interactions pattern].\n     * _Available since v2.4.0._",
            "id": 7190,
            "implemented": true,
            "kind": "function",
            "modifiers": [],
            "name": "sendValue",
            "nodeType": "FunctionDefinition",
            "parameters": {
              "id": 7162,
              "nodeType": "ParameterList",
              "parameters": [
                {
                  "constant": false,
                  "id": 7159,
                  "name": "recipient",
                  "nodeType": "VariableDeclaration",
                  "scope": 7190,
                  "src": "2664:25:35",
                  "stateVariable": false,
                  "storageLocation": "default",
                  "typeDescriptions": {
                    "typeIdentifier": "t_address_payable",
                    "typeString": "address payable"
                  },
                  "typeName": {
                    "id": 7158,
                    "name": "address",
                    "nodeType": "ElementaryTypeName",
                    "src": "2664:15:35",
                    "stateMutability": "payable",
                    "typeDescriptions": {
                      "typeIdentifier": "t_address_payable",
                      "typeString": "address payable"
                    }
                  },
                  "value": null,
                  "visibility": "internal"
                },
                {
                  "constant": false,
                  "id": 7161,
                  "name": "amount",
                  "nodeType": "VariableDeclaration",
                  "scope": 7190,
                  "src": "2691:14:35",
                  "stateVariable": false,
                  "storageLocation": "default",
                  "typeDescriptions": {
                    "typeIdentifier": "t_uint256",
                    "typeString": "uint256"
                  },
                  "typeName": {
                    "id": 7160,
                    "name": "uint256",
                    "nodeType": "ElementaryTypeName",
                    "src": "2691:7:35",
                    "typeDescriptions": {
                      "typeIdentifier": "t_uint256",
                      "typeString": "uint256"
                    }
                  },
                  "value": null,
                  "visibility": "internal"
                }
              ],
              "src": "2663:43:35"
            },
            "returnParameters": {
              "id": 7163,
              "nodeType": "ParameterList",
              "parameters": [],
              "src": "2716:0:35"
            },
            "scope": 7191,
            "src": "2645:365:35",
            "stateMutability": "nonpayable",
            "superFunction": null,
            "visibility": "internal"
          }
        ],
        "scope": 7192,
        "src": "93:2919:35"
      }
    ],
    "src": "0:3013:35"
  },
  "compiler": {
    "name": "solc",
    "version": "0.5.11+commit.c082d0b4.Emscripten.clang"
  },
  "networks": {},
  "schemaVersion": "3.0.19",
  "updatedAt": "2019-12-14T02:17:37.904Z",
  "devdoc": {
    "details": "Collection of functions related to the address type",
    "methods": {}
  },
  "userdoc": {
    "methods": {}
  }
}