{
  "contractName": "Voting",
  "abi": [],
  "metadata": "{\"compiler\":{\"version\":\"0.5.11+commit.c082d0b4\"},\"language\":\"Solidity\",\"output\":{\"abi\":[],\"devdoc\":{\"author\":\"Kostiantyn Smyrnov <kostysh@gmail.com>\",\"details\":\"This library holds voting utilities\",\"methods\":{},\"title\":\"Voting utilities\"},\"userdoc\":{\"methods\":{}}},\"settings\":{\"compilationTarget\":{\"/home/kostysh/dev/unstoppable/packages/contracts/contracts/libraries/Voting.sol\":\"Voting\"},\"evmVersion\":\"petersburg\",\"libraries\":{},\"optimizer\":{\"enabled\":true,\"runs\":200},\"remappings\":[]},\"sources\":{\"/home/kostysh/dev/unstoppable/packages/contracts/contracts/libraries/Voting.sol\":{\"keccak256\":\"0x1882b4084600d88b1f6260e7527b6492209612aec562bb28aa1abdf3742909ba\",\"urls\":[\"bzz-raw://fd4489f1a2391415156a15dba7f500f76d4a4a82721578ae04f5df17aca02584\",\"dweb:/ipfs/QmYPnFnR4hscPPubCBPf91cp838imzUBUdebi3iLcieTWa\"]}},\"version\":1}",
  "bytecode": "0x60556023600b82828239805160001a607314601657fe5b30600052607381538281f3fe73000000000000000000000000000000000000000030146080604052600080fdfea265627a7a723158209ee8af87e5e3cc3fb15e9260c1f9301f53c12d6898947df7fa6e9af54d9c3af364736f6c634300050b0032",
  "deployedBytecode": "0x73000000000000000000000000000000000000000030146080604052600080fdfea265627a7a723158209ee8af87e5e3cc3fb15e9260c1f9301f53c12d6898947df7fa6e9af54d9c3af364736f6c634300050b0032",
  "sourceMap": "155:435:9:-;;132:2:-1;166:7;155:9;146:7;137:37;255:7;249:14;246:1;241:23;235:4;232:33;222:2;;269:9;222:2;293:9;290:1;283:20;323:4;314:7;306:22;347:7;338;331:24",
  "deployedSourceMap": "155:435:9:-;;;;;;;;",
  "source": "pragma solidity 0.5.11;\n\n\n/**\n * @title Voting utilities\n * @dev This library holds voting utilities\n * @author Kostiantyn Smyrnov <kostysh@gmail.com>\n */\nlibrary Voting {\n\n    /**\n     * @dev Returns a square root\n     * @param x Source\n     * @return square root from the x\n     */\n    function sqrt(uint256 x) internal pure returns (uint256 y) {\n        \n        assembly {\n            let z := div(add(x, 1), 2)\n            y := x\n            for { } lt(z, y) { } {\n                y := z\n                z := div(add(div(x, z), z), 2)\n            }\n        }\n\n        return y;\n    }\n}",
  "sourcePath": "/home/kostysh/dev/unstoppable/packages/contracts/contracts/libraries/Voting.sol",
  "ast": {
    "absolutePath": "/home/kostysh/dev/unstoppable/packages/contracts/contracts/libraries/Voting.sol",
    "exportedSymbols": {
      "Voting": [
        3121
      ]
    },
    "id": 3122,
    "nodeType": "SourceUnit",
    "nodes": [
      {
        "id": 3109,
        "literals": [
          "solidity",
          "0.5",
          ".11"
        ],
        "nodeType": "PragmaDirective",
        "src": "0:23:9"
      },
      {
        "baseContracts": [],
        "contractDependencies": [],
        "contractKind": "library",
        "documentation": "@title Voting utilities\n@dev This library holds voting utilities\n@author Kostiantyn Smyrnov <kostysh@gmail.com>",
        "fullyImplemented": true,
        "id": 3121,
        "linearizedBaseContracts": [
          3121
        ],
        "name": "Voting",
        "nodeType": "ContractDefinition",
        "nodes": [
          {
            "body": {
              "id": 3119,
              "nodeType": "Block",
              "src": "347:241:9",
              "statements": [
                {
                  "externalReferences": [
                    {
                      "x": {
                        "declaration": 3111,
                        "isOffset": false,
                        "isSlot": false,
                        "src": "406:1:9",
                        "valueSize": 1
                      }
                    },
                    {
                      "y": {
                        "declaration": 3114,
                        "isOffset": false,
                        "isSlot": false,
                        "src": "486:1:9",
                        "valueSize": 1
                      }
                    },
                    {
                      "y": {
                        "declaration": 3114,
                        "isOffset": false,
                        "isSlot": false,
                        "src": "428:1:9",
                        "valueSize": 1
                      }
                    },
                    {
                      "x": {
                        "declaration": 3111,
                        "isOffset": false,
                        "isSlot": false,
                        "src": "433:1:9",
                        "valueSize": 1
                      }
                    },
                    {
                      "y": {
                        "declaration": 3114,
                        "isOffset": false,
                        "isSlot": false,
                        "src": "461:1:9",
                        "valueSize": 1
                      }
                    },
                    {
                      "x": {
                        "declaration": 3111,
                        "isOffset": false,
                        "isSlot": false,
                        "src": "526:1:9",
                        "valueSize": 1
                      }
                    }
                  ],
                  "id": 3116,
                  "nodeType": "InlineAssembly",
                  "operations": "{\n    let z := div(add(x, 1), 2)\n    y := x\n    for { } lt(z, y) { }\n    {\n        y := z\n        z := div(add(div(x, z), z), 2)\n    }\n}",
                  "src": "366:197:9"
                },
                {
                  "expression": {
                    "argumentTypes": null,
                    "id": 3117,
                    "name": "y",
                    "nodeType": "Identifier",
                    "overloadedDeclarations": [],
                    "referencedDeclaration": 3114,
                    "src": "580:1:9",
                    "typeDescriptions": {
                      "typeIdentifier": "t_uint256",
                      "typeString": "uint256"
                    }
                  },
                  "functionReturnParameters": 3115,
                  "id": 3118,
                  "nodeType": "Return",
                  "src": "573:8:9"
                }
              ]
            },
            "documentation": "@dev Returns a square root\n@param x Source\n@return square root from the x",
            "id": 3120,
            "implemented": true,
            "kind": "function",
            "modifiers": [],
            "name": "sqrt",
            "nodeType": "FunctionDefinition",
            "parameters": {
              "id": 3112,
              "nodeType": "ParameterList",
              "parameters": [
                {
                  "constant": false,
                  "id": 3111,
                  "name": "x",
                  "nodeType": "VariableDeclaration",
                  "scope": 3120,
                  "src": "302:9:9",
                  "stateVariable": false,
                  "storageLocation": "default",
                  "typeDescriptions": {
                    "typeIdentifier": "t_uint256",
                    "typeString": "uint256"
                  },
                  "typeName": {
                    "id": 3110,
                    "name": "uint256",
                    "nodeType": "ElementaryTypeName",
                    "src": "302:7:9",
                    "typeDescriptions": {
                      "typeIdentifier": "t_uint256",
                      "typeString": "uint256"
                    }
                  },
                  "value": null,
                  "visibility": "internal"
                }
              ],
              "src": "301:11:9"
            },
            "returnParameters": {
              "id": 3115,
              "nodeType": "ParameterList",
              "parameters": [
                {
                  "constant": false,
                  "id": 3114,
                  "name": "y",
                  "nodeType": "VariableDeclaration",
                  "scope": 3120,
                  "src": "336:9:9",
                  "stateVariable": false,
                  "storageLocation": "default",
                  "typeDescriptions": {
                    "typeIdentifier": "t_uint256",
                    "typeString": "uint256"
                  },
                  "typeName": {
                    "id": 3113,
                    "name": "uint256",
                    "nodeType": "ElementaryTypeName",
                    "src": "336:7:9",
                    "typeDescriptions": {
                      "typeIdentifier": "t_uint256",
                      "typeString": "uint256"
                    }
                  },
                  "value": null,
                  "visibility": "internal"
                }
              ],
              "src": "335:11:9"
            },
            "scope": 3121,
            "src": "288:300:9",
            "stateMutability": "pure",
            "superFunction": null,
            "visibility": "internal"
          }
        ],
        "scope": 3122,
        "src": "155:435:9"
      }
    ],
    "src": "0:590:9"
  },
  "legacyAST": {
    "absolutePath": "/home/kostysh/dev/unstoppable/packages/contracts/contracts/libraries/Voting.sol",
    "exportedSymbols": {
      "Voting": [
        3121
      ]
    },
    "id": 3122,
    "nodeType": "SourceUnit",
    "nodes": [
      {
        "id": 3109,
        "literals": [
          "solidity",
          "0.5",
          ".11"
        ],
        "nodeType": "PragmaDirective",
        "src": "0:23:9"
      },
      {
        "baseContracts": [],
        "contractDependencies": [],
        "contractKind": "library",
        "documentation": "@title Voting utilities\n@dev This library holds voting utilities\n@author Kostiantyn Smyrnov <kostysh@gmail.com>",
        "fullyImplemented": true,
        "id": 3121,
        "linearizedBaseContracts": [
          3121
        ],
        "name": "Voting",
        "nodeType": "ContractDefinition",
        "nodes": [
          {
            "body": {
              "id": 3119,
              "nodeType": "Block",
              "src": "347:241:9",
              "statements": [
                {
                  "externalReferences": [
                    {
                      "x": {
                        "declaration": 3111,
                        "isOffset": false,
                        "isSlot": false,
                        "src": "406:1:9",
                        "valueSize": 1
                      }
                    },
                    {
                      "y": {
                        "declaration": 3114,
                        "isOffset": false,
                        "isSlot": false,
                        "src": "486:1:9",
                        "valueSize": 1
                      }
                    },
                    {
                      "y": {
                        "declaration": 3114,
                        "isOffset": false,
                        "isSlot": false,
                        "src": "428:1:9",
                        "valueSize": 1
                      }
                    },
                    {
                      "x": {
                        "declaration": 3111,
                        "isOffset": false,
                        "isSlot": false,
                        "src": "433:1:9",
                        "valueSize": 1
                      }
                    },
                    {
                      "y": {
                        "declaration": 3114,
                        "isOffset": false,
                        "isSlot": false,
                        "src": "461:1:9",
                        "valueSize": 1
                      }
                    },
                    {
                      "x": {
                        "declaration": 3111,
                        "isOffset": false,
                        "isSlot": false,
                        "src": "526:1:9",
                        "valueSize": 1
                      }
                    }
                  ],
                  "id": 3116,
                  "nodeType": "InlineAssembly",
                  "operations": "{\n    let z := div(add(x, 1), 2)\n    y := x\n    for { } lt(z, y) { }\n    {\n        y := z\n        z := div(add(div(x, z), z), 2)\n    }\n}",
                  "src": "366:197:9"
                },
                {
                  "expression": {
                    "argumentTypes": null,
                    "id": 3117,
                    "name": "y",
                    "nodeType": "Identifier",
                    "overloadedDeclarations": [],
                    "referencedDeclaration": 3114,
                    "src": "580:1:9",
                    "typeDescriptions": {
                      "typeIdentifier": "t_uint256",
                      "typeString": "uint256"
                    }
                  },
                  "functionReturnParameters": 3115,
                  "id": 3118,
                  "nodeType": "Return",
                  "src": "573:8:9"
                }
              ]
            },
            "documentation": "@dev Returns a square root\n@param x Source\n@return square root from the x",
            "id": 3120,
            "implemented": true,
            "kind": "function",
            "modifiers": [],
            "name": "sqrt",
            "nodeType": "FunctionDefinition",
            "parameters": {
              "id": 3112,
              "nodeType": "ParameterList",
              "parameters": [
                {
                  "constant": false,
                  "id": 3111,
                  "name": "x",
                  "nodeType": "VariableDeclaration",
                  "scope": 3120,
                  "src": "302:9:9",
                  "stateVariable": false,
                  "storageLocation": "default",
                  "typeDescriptions": {
                    "typeIdentifier": "t_uint256",
                    "typeString": "uint256"
                  },
                  "typeName": {
                    "id": 3110,
                    "name": "uint256",
                    "nodeType": "ElementaryTypeName",
                    "src": "302:7:9",
                    "typeDescriptions": {
                      "typeIdentifier": "t_uint256",
                      "typeString": "uint256"
                    }
                  },
                  "value": null,
                  "visibility": "internal"
                }
              ],
              "src": "301:11:9"
            },
            "returnParameters": {
              "id": 3115,
              "nodeType": "ParameterList",
              "parameters": [
                {
                  "constant": false,
                  "id": 3114,
                  "name": "y",
                  "nodeType": "VariableDeclaration",
                  "scope": 3120,
                  "src": "336:9:9",
                  "stateVariable": false,
                  "storageLocation": "default",
                  "typeDescriptions": {
                    "typeIdentifier": "t_uint256",
                    "typeString": "uint256"
                  },
                  "typeName": {
                    "id": 3113,
                    "name": "uint256",
                    "nodeType": "ElementaryTypeName",
                    "src": "336:7:9",
                    "typeDescriptions": {
                      "typeIdentifier": "t_uint256",
                      "typeString": "uint256"
                    }
                  },
                  "value": null,
                  "visibility": "internal"
                }
              ],
              "src": "335:11:9"
            },
            "scope": 3121,
            "src": "288:300:9",
            "stateMutability": "pure",
            "superFunction": null,
            "visibility": "internal"
          }
        ],
        "scope": 3122,
        "src": "155:435:9"
      }
    ],
    "src": "0:590:9"
  },
  "compiler": {
    "name": "solc",
    "version": "0.5.11+commit.c082d0b4.Emscripten.clang"
  },
  "networks": {},
  "schemaVersion": "3.0.19",
  "updatedAt": "2019-12-14T02:17:37.855Z",
  "devdoc": {
    "author": "Kostiantyn Smyrnov <kostysh@gmail.com>",
    "details": "This library holds voting utilities",
    "methods": {},
    "title": "Voting utilities"
  },
  "userdoc": {
    "methods": {}
  }
}